----------------------------------------------------------------
Fri Feb 21 17:20:20 IST 2020:
Booting Derby version The Apache Software Foundation - Apache Derby - 10.14.2.0 - (1828579): instance a816c00e-0170-6795-9153-0000055ebba8 
on database directory memory:F:\Code\MultiActivityTaskProject\testdb with class loader sun.misc.Launcher$AppClassLoader@73d16e93 
Loaded from file:/C:/Users/Administrator.MONO-HYD-LAP-1/.m2/repository/org/apache/derby/derby/10.14.2.0/derby-10.14.2.0.jar
java.vendor=Oracle Corporation
java.runtime.version=1.8.0_211-b12
user.dir=F:\Code\MultiActivityTaskProject
os.name=Windows 10
os.arch=amd64
os.version=10.0
derby.system.home=null
Database Class Loader started - derby.database.classpath=''
